<svg xmlns="http://www.w3.org/2000/svg" width="120" height="30" viewBox="0 0 120 30" fill="none">
  <path d="M1 14.9769C2.12042 -3.6551 9.74187 -3.65532 10.8623 14.9769L10.8635 14.9922C11.9839 33.6244 19.6054 33.6242 20.7258 14.9918C21.8465 -3.64692 29.4683 -3.64692 30.5887 14.9857C31.7091 33.6184 39.3305 33.6184 40.451 14.986V14.9849C41.5714 -3.64756 49.1931 -3.64778 50.3135 14.9849L50.3139 14.9901C51.4343 33.6223 59.0557 33.6223 60.1761 14.9901L60.177 14.9763C61.2975 -3.65596 68.9189 -3.65618 70.0396 14.9758L70.0405 14.9965C71.1613 33.6285 78.7827 33.6283 79.9031 14.9961L79.9044 14.9776C81.0248 -3.65467 88.6462 -3.65467 89.7666 14.9773L89.7675 14.9957C90.8883 33.6277 98.5097 33.6275 99.6301 14.9954L99.631 14.9773C100.752 -3.65467 108.373 -3.65467 109.494 14.9773L109.495 14.9963C110.615 33.6283 118.236 33.6285 119.357 14.9963" stroke="#5F78BB"/>
</svg>
